Arboring Widths - Angiosperms
…
# Load data
angio <- read.csv("Arboringwidthsangiosperms.csv")

# Remove X in front of year columns by subbing "X" with nothing ""
colnames(angio) <- sub("X", "", colnames(angio))

# Pivot data
angio_data_long <- pivot_longer(data = angio, cols = "2014":"1802", names_to = "Year", values_to = "Ringwidth", values_drop_na = TRUE)

# View data
print(angio_data_long)

# A tibble: 14,056 × 12
   TreeName Site  YearLastRing Species RingCount DataType OffsetToNext ImageName
   <chr>    <chr>        <int> <chr>       <int> <chr>           <int> <chr>    
 1 12651*C  Arn …         2014 Aescul…       107 RINGWID…            1 Aesculus…
 2 12651*C  Arn …         2014 Aescul…       107 RINGWID…            1 Aesculus…
 3 12651*C  Arn …         2014 Aescul…       107 RINGWID…            1 Aesculus…
 4 12651*C  Arn …         2014 Aescul…       107 RINGWID…            1 Aesculus…
 5 12651*C  Arn …         2014 Aescul…       107 RINGWID…            1 Aesculus…
 6 12651*C  Arn …         2014 Aescul…       107 RINGWID…            1 Aesculus…
 7 12651*C  Arn …         2014 Aescul…       107 RINGWID…            1 Aesculus…
 8 12651*C  Arn …         2014 Aescul…       107 RINGWID…            1 Aesculus…
 9 12651*C  Arn …         2014 Aescul…       107 RINGWID…            1 Aesculus…
10 12651*C  Arn …         2014 Aescul…       107 RINGWID…            1 Aesculus…
# ℹ 14,046 more rows
# ℹ 4 more variables: Analysis.Date.Time <chr>, PathLength <dbl>, Year <chr>,
#   Ringwidth <dbl>
…
