Arboring Widths - Gymnosperms
…
# Load data
gymno <- read.csv("Arboringwidthsgymnosperms.csv")

# Remove X in front of year columns by subbing "X" with nothing ""
colnames(gymno) <- sub("X", "", colnames(gymno))

# Pivot data
gymno_data_long <- pivot_longer(data = gymno, cols = "2014":"1861", names_to = "Year", values_to = "Ringwidth", values_drop_na = TRUE)

# View data
print(gymno_data_long)

# A tibble: 13,103 × 9
   TreeName Species      YearLastRing Site  RingCount ImageName AnalysisDateTime
   <chr>    <chr>               <int> <chr>     <int> <chr>     <chr>           
 1 10645*A  Abies_korea…         2014 Arno…        78 Abies_sp… 7/20/16 9:39    
 2 10645*A  Abies_korea…         2014 Arno…        78 Abies_sp… 7/20/16 9:39    
 3 10645*A  Abies_korea…         2014 Arno…        78 Abies_sp… 7/20/16 9:39    
 4 10645*A  Abies_korea…         2014 Arno…        78 Abies_sp… 7/20/16 9:39    
 5 10645*A  Abies_korea…         2014 Arno…        78 Abies_sp… 7/20/16 9:39    
 6 10645*A  Abies_korea…         2014 Arno…        78 Abies_sp… 7/20/16 9:39    
 7 10645*A  Abies_korea…         2014 Arno…        78 Abies_sp… 7/20/16 9:39    
 8 10645*A  Abies_korea…         2014 Arno…        78 Abies_sp… 7/20/16 9:39    
 9 10645*A  Abies_korea…         2014 Arno…        78 Abies_sp… 7/20/16 9:39    
10 10645*A  Abies_korea…         2014 Arno…        78 Abies_sp… 7/20/16 9:39    
# ℹ 13,093 more rows
# ℹ 2 more variables: Year <chr>, Ringwidth <dbl>
…
